-------------------------------------------------------------------------------
Test set: org.jasig.cas.WiringTests
-------------------------------------------------------------------------------
Tests run: 1, Failures: 0, Errors: 0, Skipped: 0, Time elapsed: 6.291 sec
