-------------------------------------------------------------------------------
Test set: org.jasig.cas.web.flow.ServiceAuthorizationCheckTests
-------------------------------------------------------------------------------
Tests run: 4, Failures: 0, Errors: 0, Skipped: 0, Time elapsed: 0.208 sec
